module gitlab.com/gaia-x/data-infrastructure-federation-services/tsa/policy/cmd/sync

go 1.19

require (
	github.com/go-git/go-git/v5 v5.4.2
	github.com/kelseyhightower/envconfig v1.4.0
	go.mongodb.org/mongo-driver v1.10.2
)

require (
	github.com/Microsoft/go-winio v0.4.16 // indirect
	github.com/ProtonMail/go-crypto v0.0.0-20210428141323-04723f9f07d7 // indirect
	github.com/acomagu/bufpipe v1.0.3 // indirect
	github.com/emirpasic/gods v1.12.0 // indirect
	github.com/go-git/gcfg v1.5.0 // indirect
	github.com/go-git/go-billy/v5 v5.3.1 // indirect
	github.com/golang/snappy v0.0.1 // indirect
	github.com/imdario/mergo v0.3.12 // indirect
	github.com/jbenet/go-context v0.0.0-20150711004518-d14ea06fba99 // indirect
	github.com/kevinburke/ssh_config v0.0.0-20201106050909-4977a11b4351 // indirect
	github.com/klauspost/compress v1.13.6 // indirect
	github.com/mitchellh/go-homedir v1.1.0 // indirect
	github.com/montanaflynn/stats v0.0.0-20171201202039-1bf9dbcd8cbe // indirect
	github.com/pkg/errors v0.9.1 // indirect
	github.com/sergi/go-diff v1.1.0 // indirect
	github.com/xanzy/ssh-agent v0.3.0 // indirect
	github.com/xdg-go/pbkdf2 v1.0.0 // indirect
	github.com/xdg-go/scram v1.1.1 // indirect
	github.com/xdg-go/stringprep v1.0.3 // indirect
	github.com/youmark/pkcs8 v0.0.0-20181117223130-1be2e3e5546d // indirect
	golang.org/x/crypto v0.0.0-20220622213112-05595931fe9d // indirect
	golang.org/x/net v0.0.0-20211112202133-69e39bad7dc2 // indirect
	golang.org/x/sync v0.0.0-20210220032951-036812b2e83c // indirect
	golang.org/x/sys v0.0.0-20210615035016-665e8c7367d1 // indirect
	golang.org/x/text v0.3.7 // indirect
	gopkg.in/warnings.v0 v0.1.2 // indirect
)
